Covid-19 Colombia
…
\(\text{Tasa de Incidencia en EEUU} = \frac{\text{Confirmados}}{1.000.000 \text{ de habitantes}} =\) 13,214

\(\text{Tasa de Letalidad de Casos Confirmados en EEUU (%)} = \frac{\text{Nmero de muertes registradas}}{\text{ Nmero de casos confirmados}}\times 100 =\) 3.43

\(\text{Muestras Procesadas por Millon de Habitantes en EEUU} = \frac{\text{Nmero de muestras procesadas}}{1.000.000 \text{ de habitantes}} =\) 61,337

\(\text{Casos Activos en Colombia}\) (121,621) \(= \text{Confirmados}\) (267,385) \(- \text{ Recuperados}\) (136,690) \(- \text{ Muertes}\) (9,074)

\(\text{Tasa de Incidencia en Colombia} = \frac{\text{Confirmados}}{1.000.000 \text{ de habitantes}} =\) 5,308

\(\text{Tasa de Letalidad de Casos Confirmados en Colombia (%)} = \frac{\text{Nmero de muertes registradas}}{\text{ Nmero de casos confirmados}}\times 100 =\) 3.39

\(\text{Muestras Procesadas por Millon de Habitantes en Colombia} = \frac{\text{Nmero de muestras procesadas}}{1.000.000 \text{ de habitantes}} =\) 29,195

## # A tibble: 91 x 16
##    `ID DE CASO` `FECHA REPORTE  `FECHA DE NOTIF ATENCION  EDAD SEXO  TIPO 
##           <dbl> <date>           <date>           <chr>    <dbl> <chr> <chr>
##  1          130 2020-03-20       2020-03-18       Recuper    53 M     Impo
##  2          356 2020-03-24       2020-03-21       Recuper    32 M     Impo
##  3        29988 2020-06-01       2020-05-23       Recuper    38 F     Rela
##  4        29989 2020-06-01       2020-05-25       Recuper    41 M     Rela
##  5        29990 2020-06-01       2020-05-23       Recuper    46 F     Rela
##  6        29991 2020-06-01       2020-05-23       Recuper    65 F     Rela
##  7        29992 2020-06-01       2020-05-23       Recuper    41 F     Rela
##  8        29993 2020-06-01       2020-05-23       Recuper    52 M     Rela
##  9        29994 2020-06-01       2020-05-23       Recuper    52 F     Rela
## 10        29995 2020-06-01       2020-05-23       Recuper    37 M     Rela
## #  with 81 more rows, and 9 more variables: ESTADO <chr>, `PAIS DE
## #   PROCEDENCIA` <chr>, `FECHA DE MUERTE` <date>, `FECHA DIAGNOSTICO` <date>,
## #   `FECHA RECUPERADO` <date>, `TIPO RECUPERACION` <chr>, `PERTENENCIA
## #   ETNICA` <chr>, `NOMBRE GRUPO ETNICO` <chr>, case_num <int>
…
